ST558 Homework 6
…
  news_df <- parsed |>
    pluck("articles")
  
  news_df <- as_tibble(news_df)
  
  return(news_df)
}

## testing API function
tesla_news <- newsAPIFun(title = "tesla", time = "2024-09-16", key = "6cfff225c2854bdea42bb46beb09a5fd")
nvidia_news <- newsAPIFun(title = "nvidia", time = "2024-09-16", key = "6cfff225c2854bdea42bb46beb09a5fd")

tesla_news

# A tibble: 100 × 8
   source$id $name author title description url   urlToImage publishedAt content
   <chr>     <chr> <chr>  <chr> <chr>       <chr> <chr>      <chr>       <chr>  
 1 <NA>      [Rem… <NA>   [Rem… "[Removed]" http… <NA>       2024-10-02… "[Remo…
 2 wired     Wired Kevin… I Ow… "The anxie… http… https://m… 2024-10-04… "It sh…
 3 wired     Wired Aaria… Tesl… "On Thursd… http… https://m… 2024-10-09… "On Th…
 4 the-verge The … Andre… Tesl… "Tesla CEO… http… https://c… 2024-10-11… "Tesla…
 5 the-verge The … Andre… The … "Tesla CEO… http… https://c… 2024-10-09… "Image…
 6 <NA>      [Rem… <NA>   [Rem… "[Removed]" http… <NA>       2024-10-08… "[Remo…
 7 the-verge The … Wes D… The … "Tesla’s O… http… https://c… 2024-10-13… "An Op…
 8 <NA>      BBC … <NA>   Musk… "BBC Tech … http… https://i… 2024-10-12… "Elon …
 9 the-verge The … Andre… EV c… "Revel tea… http… https://c… 2024-09-18… "EV ch…
10 <NA>      Yaho… Danny… Tesl… "Tesla iss… http… <NA>       2024-10-03… "If yo…
# ℹ 90 more rows
…
library(lubridate)
tesla_news_mod <- tesla_news |>
  mutate(publishedAt = ymd_hms(publishedAt)) |>
  arrange(publishedAt) |>
  mutate(pub_diff = publishedAt - lag(publishedAt))

nvidia_news_mod <- nvidia_news |>
  mutate(publishedAt = ymd_hms(publishedAt)) |>
  arrange(publishedAt) |>
  mutate(pub_diff = publishedAt - lag(publishedAt))

tesla_news_mod

# A tibble: 100 × 9
   source$id $name author title description url   urlToImage publishedAt        
   <chr>     <chr> <chr>  <chr> <chr>       <chr> <chr>      <dttm>             
 1 <NA>      WPIX… Laure… 2 ki… WHITE PLAI… http… https://m… 2024-09-16 20:14:22
 2 business… Busi… Thero… Orac… Larry Elli… http… https://i… 2024-09-17 10:22:32
 3 <NA>      Yaho… <NA>   Hgen… <NA>        http… <NA>       2024-09-17 13:00:00
 4 <NA>      Xata… Rubén… X ha… Por mucho … http… https://i… 2024-09-17 13:30:16
 5 ars-tech… Ars … Jonat… Driv… As drivers… http… https://c… 2024-09-17 15:00:59
 6 the-verge The … Andre… Back… For $1,999… http… https://c… 2024-09-18 04:00:00
 7 business… Busi… Nora … GM's… General Mo… http… https://i… 2024-09-18 12:01:01
 8 the-verge The … Andre… EV c… Revel team… http… https://c… 2024-09-18 13:00:00
 9 <NA>      Yaho… Lawre… 1 So… This AI co… http… https://s… 2024-09-19 11:15:00
10 business… Busi… Tom C… A Ru… Ramzan Kad… http… https://i… 2024-09-20 10:43:52
# ℹ 90 more rows
# ℹ 2 more variables: content <chr>, pub_diff <drtn>
…
